…
*Hint:* This is one of those times when you should think about the
cleanliness of your analysis. I added a single code chunk for you, but
do you want to use more than one? Would you like to write more comments
outside of the code chunk?

``` r
### EXPLORE HERE ###

cancer_sample
```

    ## # A tibble: 569 × 32
    ##          ID diagnosis radius_mean texture_mean perimeter_mean area_mean
    ##       <dbl> <chr>           <dbl>        <dbl>          <dbl>     <dbl>
    ##  1   842302 M                18.0         10.4          123.      1001 
    ##  2   842517 M                20.6         17.8          133.      1326 
    ##  3 84300903 M                19.7         21.2          130       1203 
    ##  4 84348301 M                11.4         20.4           77.6      386.
    ##  5 84358402 M                20.3         14.3          135.      1297 
    ##  6   843786 M                12.4         15.7           82.6      477.
    ##  7   844359 M                18.2         20.0          120.      1040 
    ##  8 84458202 M                13.7         20.8           90.2      578.
    ##  9   844981 M                13           21.8           87.5      520.
    ## 10 84501001 M                12.5         24.0           84.0      476.
    ## # … with 559 more rows, and 26 more variables: smoothness_mean <dbl>,
    ## #   compactness_mean <dbl>, concavity_mean <dbl>, concave_points_mean <dbl>,
    ## #   symmetry_mean <dbl>, fractal_dimension_mean <dbl>, radius_se <dbl>,
    ## #   texture_se <dbl>, perimeter_se <dbl>, area_se <dbl>, smoothness_se <dbl>,
    ## #   compactness_se <dbl>, concavity_se <dbl>, concave_points_se <dbl>,
    ## #   symmetry_se <dbl>, fractal_dimension_se <dbl>, radius_worst <dbl>,
    ## #   texture_worst <dbl>, perimeter_worst <dbl>, area_worst <dbl>, …
…
### Comment

*There are 569 rows and 32 variables in this datasets. The class type
inclde’dbl’ and ‘char’. Most of the results (beside diagnoisis) is
presented in ‘dbl’ form. The diagnosis type includes “M” and “B” type.
There are no NAs for this datasets*

``` r
apt_buildings
```

    ## # A tibble: 3,455 × 37
    ##       id air_conditioning amenities    balconies barrier_free_acc… bike_parking 
    ##    <dbl> <chr>            <chr>        <chr>     <chr>             <chr>        
    ##  1 10359 NONE             Outdoor rec… YES       YES               0 indoor par…
    ##  2 10360 NONE             Outdoor pool YES       NO                0 indoor par…
    ##  3 10361 NONE             <NA>         YES       NO                Not Available
    ##  4 10362 NONE             <NA>         YES       YES               Not Available
    ##  5 10363 NONE             <NA>         NO        NO                12 indoor pa…
    ##  6 10364 NONE             <NA>         NO        NO                Not Available
    ##  7 10365 NONE             <NA>         NO        YES               Not Available
    ##  8 10366 CENTRAL AIR      Indoor pool… YES       NO                Not Available
    ##  9 10367 NONE             <NA>         YES       YES               0 indoor par…
    ## 10 10368 NONE             Indoor recr… YES       YES               Not Available
    ## # … with 3,445 more rows, and 31 more variables: exterior_fire_escape <chr>,
    ## #   fire_alarm <chr>, garbage_chutes <chr>, heating_type <chr>, intercom <chr>,
    ## #   laundry_room <chr>, locker_or_storage_room <chr>, no_of_elevators <dbl>,
    ## #   parking_type <chr>, pets_allowed <chr>, prop_management_company_name <chr>,
    ## #   property_type <chr>, rsn <dbl>, separate_gas_meters <chr>,
    ## #   separate_hydro_meters <chr>, separate_water_meters <chr>,
    ## #   site_address <chr>, sprinkler_system <chr>, visitor_parking <chr>, …
…
``` r
#see if there's any missing value in this dataset#
apt_buildings[!complete.cases(apt_buildings),]
```

    ## # A tibble: 2,923 × 37
    ##       id air_conditioning amenities  balconies barrier_free_acce… bike_parking  
    ##    <dbl> <chr>            <chr>      <chr>     <chr>              <chr>         
    ##  1 10359 NONE             Outdoor r… YES       YES                0 indoor park…
    ##  2 10361 NONE             <NA>       YES       NO                 Not Available 
    ##  3 10362 NONE             <NA>       YES       YES                Not Available 
    ##  4 10363 NONE             <NA>       NO        NO                 12 indoor par…
    ##  5 10364 NONE             <NA>       NO        NO                 Not Available 
    ##  6 10365 NONE             <NA>       NO        YES                Not Available 
    ##  7 10367 NONE             <NA>       YES       YES                0 indoor park…
    ##  8 10368 NONE             Indoor re… YES       YES                Not Available 
    ##  9 10369 NONE             <NA>       NO        YES                Not Available 
    ## 10 10370 NONE             <NA>       YES       NO                 Not Available 
    ## # … with 2,913 more rows, and 31 more variables: exterior_fire_escape <chr>,
    ## #   fire_alarm <chr>, garbage_chutes <chr>, heating_type <chr>, intercom <chr>,
    ## #   laundry_room <chr>, locker_or_storage_room <chr>, no_of_elevators <dbl>,
    ## #   parking_type <chr>, pets_allowed <chr>, prop_management_company_name <chr>,
    ## #   property_type <chr>, rsn <dbl>, separate_gas_meters <chr>,
    ## #   separate_hydro_meters <chr>, separate_water_meters <chr>,
    ## #   site_address <chr>, sprinkler_system <chr>, visitor_parking <chr>, …
…
# Comment

*There are 3455 rows and 37 variables in this datasets. The class type
include ‘Char’and ’dbl’. Most of the results are (besides id,
no\_of\_elevator, rsn, year\_built, year\_registred and no\_of\_unit)
are presented in chr form. There are 2,923 rows with NA values.There are
NA values for 28 variables like amenities, exterior\_fire\_escape. and
no\_barrier\_Free\_accessible\_units*

``` r
flow_sample
```

    ## # A tibble: 218 × 7
    ##    station_id  year extreme_type month   day  flow sym  
    ##    <chr>      <dbl> <chr>        <dbl> <dbl> <dbl> <chr>
    ##  1 05BB001     1909 maximum          7     7   314 <NA> 
    ##  2 05BB001     1910 maximum          6    12   230 <NA> 
    ##  3 05BB001     1911 maximum          6    14   264 <NA> 
    ##  4 05BB001     1912 maximum          8    25   174 <NA> 
    ##  5 05BB001     1913 maximum          6    11   232 <NA> 
    ##  6 05BB001     1914 maximum          6    18   214 <NA> 
    ##  7 05BB001     1915 maximum          6    27   236 <NA> 
    ##  8 05BB001     1916 maximum          6    20   309 <NA> 
    ##  9 05BB001     1917 maximum          6    17   174 <NA> 
    ## 10 05BB001     1918 maximum          6    15   345 <NA> 
    ## # … with 208 more rows
…
``` r
#see if there's any missing value in this dataset#
flow_sample[!complete.cases(flow_sample),]
```

    ## # A tibble: 119 × 7
    ##    station_id  year extreme_type month   day  flow sym  
    ##    <chr>      <dbl> <chr>        <dbl> <dbl> <dbl> <chr>
    ##  1 05BB001     1909 maximum          7     7   314 <NA> 
    ##  2 05BB001     1910 maximum          6    12   230 <NA> 
    ##  3 05BB001     1911 maximum          6    14   264 <NA> 
    ##  4 05BB001     1912 maximum          8    25   174 <NA> 
    ##  5 05BB001     1913 maximum          6    11   232 <NA> 
    ##  6 05BB001     1914 maximum          6    18   214 <NA> 
    ##  7 05BB001     1915 maximum          6    27   236 <NA> 
    ##  8 05BB001     1916 maximum          6    20   309 <NA> 
    ##  9 05BB001     1917 maximum          6    17   174 <NA> 
    ## 10 05BB001     1918 maximum          6    15   345 <NA> 
    ## # … with 109 more rows
…
    ## [1] "month" "day"   "flow"  "sym"

### Comment

*There are 218 rows and 7 variables in this datasets. The class type
include ‘Char’and ’dbl’.Most of the results (beside station id and
extreme types) is presented in ‘dbl’ form. 119 rows out of 218 rows have
missing values. ‘Month’ ,‘day’, ‘flow’ and ‘system’ variables all have
missing values*

``` r
steam_games
```

    ## # A tibble: 40,833 × 21
    ##       id url    types name  desc_snippet recent_reviews all_reviews release_date
    ##    <dbl> <chr>  <chr> <chr> <chr>        <chr>          <chr>       <chr>       
    ##  1     1 https… app   DOOM  Now include… Very Positive… Very Posit… May 12, 2016
    ##  2     2 https… app   PLAY… PLAYERUNKNO… Mixed,(6,214)… Mixed,(836… Dec 21, 2017
    ##  3     3 https… app   BATT… Take comman… Mixed,(166),-… Mostly Pos… Apr 24, 2018
    ##  4     4 https… app   DayZ  The post-so… Mixed,(932),-… Mixed,(167… Dec 13, 2018
    ##  5     5 https… app   EVE … EVE Online … Mixed,(287),-… Mostly Pos… May 6, 2003 
    ##  6     6 https… bund… Gran… Grand Theft… NaN            NaN         NaN         
    ##  7     7 https… app   Devi… The ultimat… Very Positive… Very Posit… Mar 7, 2019 
    ##  8     8 https… app   Huma… Human: Fall… Very Positive… Very Posit… Jul 22, 2016
    ##  9     9 https… app   They… They Are Bi… Very Positive… Very Posit… Dec 12, 2017
    ## 10    10 https… app   Warh… In a world … <NA>           Mixed,(904… May 31, 2019
    ## # … with 40,823 more rows, and 13 more variables: developer <chr>,
    ## #   publisher <chr>, popular_tags <chr>, game_details <chr>, languages <chr>,
    ## #   achievements <dbl>, genre <chr>, game_description <chr>,
    ## #   mature_content <chr>, minimum_requirements <chr>,
    ## #   recommended_requirements <chr>, original_price <dbl>, discount_price <dbl>
…
``` r
#see if there's any missing value in this dataset#
steam_games[!complete.cases(steam_games),]
```

    ## # A tibble: 40,752 × 21
    ##       id url    types name  desc_snippet recent_reviews all_reviews release_date
    ##    <dbl> <chr>  <chr> <chr> <chr>        <chr>          <chr>       <chr>       
    ##  1     1 https… app   DOOM  Now include… Very Positive… Very Posit… May 12, 2016
    ##  2     2 https… app   PLAY… PLAYERUNKNO… Mixed,(6,214)… Mixed,(836… Dec 21, 2017
    ##  3     3 https… app   BATT… Take comman… Mixed,(166),-… Mostly Pos… Apr 24, 2018
    ##  4     4 https… app   DayZ  The post-so… Mixed,(932),-… Mixed,(167… Dec 13, 2018
    ##  5     5 https… app   EVE … EVE Online … Mixed,(287),-… Mostly Pos… May 6, 2003 
    ##  6     6 https… bund… Gran… Grand Theft… NaN            NaN         NaN         
    ##  7     8 https… app   Huma… Human: Fall… Very Positive… Very Posit… Jul 22, 2016
    ##  8     9 https… app   They… They Are Bi… Very Positive… Very Posit… Dec 12, 2017
    ##  9    10 https… app   Warh… In a world … <NA>           Mixed,(904… May 31, 2019
    ## 10    11 https… app   For … For The Kin… Very Positive… Very Posit… Apr 19, 2018
    ## # … with 40,742 more rows, and 13 more variables: developer <chr>,
    ## #   publisher <chr>, popular_tags <chr>, game_details <chr>, languages <chr>,
    ## #   achievements <dbl>, genre <chr>, game_description <chr>,
    ## #   mature_content <chr>, minimum_requirements <chr>,
    ## #   recommended_requirements <chr>, original_price <dbl>, discount_price <dbl>
…
